{
    "getAllRasy" : "SELECT RA_Nazwa, RASY.RA_ID FROM RASY;",
    "getOneRasy" :"SELECT * FROM RASY WHERE RA_ID = @id;",
    "getAllZdjecia" : "SELECT RA_ID, ZD_Zdj FROM ZDJECIA WHERE ZD_Glowne=1;",
    "getZdjecia" :"SELECT ZDJECIA.ZD_ID, ZDJECIA.ZD_Zdj, RASY.RA_ID FROM RASY JOIN ZDJECIA ON ZDJECIA.RA_ID = RASY.RA_ID WHERE RASY.RA_ID=@id",
    "getOneCharakter" : "SELECT CHARAKTER.CH_ID, CHARAKTER.CH_Nazwa FROM RASY LEFT OUTER JOIN RASY_CHARAKTER ON RASY.RA_ID=RASY_CHARAKTER.RA_ID LEFT OUTER JOIN CHARAKTER ON RASY_CHARAKTER.CH_ID = CHARAKTER.CH_ID WHERE RASY.RA_ID=@id",
    "getOneRozmiar" : "SELECT ROZMIAR.RO_ID, ROZMIAR.RO_Nazwa FROM RASY LEFT OUTER JOIN RASY_ROZMIAR ON RASY.RA_ID=RASY_ROZMIAR.RA_ID LEFT OUTER JOIN ROZMIAR ON RASY_ROZMIAR.RO_ID = ROZMIAR.RO_ID WHERE RASY.RA_ID=@id",
    "getOneSiersc" : "SELECT SIERSC.SI_ID, SIERSC.SI_Nazwa FROM RASY LEFT OUTER JOIN RASY_SIERSC ON RASY.RA_ID=RASY_SIERSC.RA_ID LEFT OUTER JOIN SIERSC ON RASY_SIERSC.SI_ID = SIERSC.SI_ID WHERE RASY.RA_ID=@id",
    "getOneUmaszczenie" : "SELECT UMASZCZENIE.UM_ID, UMASZCZENIE.UM_Nazwa FROM RASY LEFT OUTER JOIN RASY_UMASZCZENIE ON RASY.RA_ID=RASY_UMASZCZENIE.RA_ID LEFT OUTER JOIN UMASZCZENIE ON RASY_UMASZCZENIE.UM_ID = UMASZCZENIE.UM_ID WHERE RASY.RA_ID=@id",
    "getAllCharakter": "SELECT * FROM CHARAKTER",
    "getAllRozmiar": "SELECT * FROM ROZMIAR",
    "getAllSiersc": "SELECT * FROM SIERSC",
    "getAllUmaszczenie": "SELECT * FROM UMASZCZENIE",
    "getFilterCharakter": "SELECT * FROM RASY_CHARAKTER",
    "getFilterRozmiar": "SELECT * FROM RASY_ROZMIAR",
    "getFilterSiersc": "SELECT * FROM RASY_SIERSC",
    "getFilterUmaszczenie": "SELECT * FROM RASY_UMASZCZENIE"
}